<svg id="svg-branch-left" xmlns="http://www.w3.org/2000/svg" viewBox="0 0 79 14">
  <defs>
    <mask id="mask-left"> 
      <path id="mask-branch-left" stroke="#fff" stroke-miterlimit="10" stroke-width="14" d="M79 7H0"/>
    </mask>
  </defs>
  
  <g id="branch-left" fill="#c4ae7d" fill-rule="evenodd" mask="url(#mask-left)">
    <path d="M10.86 11c.22-1.54 2.35-2.2 3.79-1.9-1.18.68-1.56 2.19-3.79 1.9zm21.23.38c.29-1.79 1.84-2.33 3.79-2.47-.66 1.39-2.11 2.02-3.79 2.43zm26-.19c.64-2.21 3-2.69 5.5-3h.38c-1.26 1.52-3.04 4.21-5.91 2.96zM26.4 5.84a20.56 20.56 0 0 1-3.6-1.14c-1-.42-2.82-1.08-2.08-2.08a8.51 8.51 0 0 1 5.68 3.22zm22.94-2.08a5.54 5.54 0 0 1 1.71 2.46C49 4.58 43.91 5.9 44 2.05a8.92 8.92 0 0 1 5.34 1.71zm25 1.32c-2.19-.84-4.81-1.25-5.12-4 2.68-.34 4.03 2.21 5.15 4zm-.54 1.14c-4.07-.24-9.36.54-14 .76-1.8.08-4 .4-5.5 0-2-.53-3.18-2.88-4.93-4.17a7.24 7.24 0 0 0-2.87-1.22c-.59-.13-2-.71-2.5-.37a2.82 2.82 0 0 0-.7 2 2.27 2.27 0 0 0 1.1 1.42 14.48 14.48 0 0 0 4 1.51 10.48 10.48 0 0 1 1.07.38c.19.08.67.44.86.42a169.35 169.35 0 0 1-17.06.38c-1.13 0-2.29.55-3.41.19-.56-.18-.67-.72-1.14-1.14s-1.54-1-2.28-1.71a10.78 10.78 0 0 0-3-2 7.22 7.22 0 0 0-2-.53c-.46-.06-.95-.34-1.38 0a1.06 1.06 0 0 0-.21 1.25c.45 1.1 1.84 1.43 2.8 1.91.74.37 1.47.77 2.22 1.12a11.81 11.81 0 0 1 2.09.82c-.53.78-1.52.16-2.22.15A87.6 87.6 0 0 1 15.6 7c-3.69-.5-7.43 0-11.13 0-1.42 0-3.14-.44-4.42.36-.3.19.95.64 1.08.64.93 0 1.87-.26 2.79-.25h9.78c-.86 1.18-4.14 1.13-3.6 3.25.36 1.39 1.8 1 3 .38a21.28 21.28 0 0 0 2.22-1.91c.54-.4 2.26-.3 2.33-1.12 5.7-.22 10.63.4 15.55 0 .16 1-2.91 1.5-1.71 3.79.2.38 2-.19 2.23-.31a4.67 4.67 0 0 0 1.42-.83 9.16 9.16 0 0 1 1.19-1.14 13.12 13.12 0 0 1 2.59-.76 17.23 17.23 0 0 1 2.27-.94c2-.32 4.61-.08 7-.19 4.17-.2 7.95.05 11.75-.19C59.8 9 56.77 9 57.31 11.15c.37 1.49 3.52 1.33 4.74.38.83-.66 1.35-1.69 2.21-2.36.67-.52 1.78-.86 2-1.81 1.68-.1 3.35-.33 5-.39a16.27 16.27 0 0 1 2.42.09 4.84 4.84 0 0 1 1.6.36c.74.36 1 0 1.75-.06s1.08.48 1.52 0c.2-1.28-1.68-1.23-2.46-1.71C74.94 5 74 2.57 72.47 1.29c-1.08-.93-3.38-2.17-4-.38-.41 1.24.87 2.69 1.52 3.22 1.26 1.03 2.92 1.17 3.81 2.09z" transform="translate(.24 .34)"/>
    <path d="M64.7 3.38c.4 1.27 1.1.41.9 0-.09-.15-.35-.24-.9 0zm-49.1.19h-.38c0 .16-.08.18-.19.19v.37c.16 0 .18.08.19.19h.38c0-.16.07-.17.19-.19v-.37c-.17.03-.18-.08-.19-.19zM67 5.08a1.49 1.49 0 0 0 1.7.76c.76-1.19-1.29-1.84-1.7-.76zm-48.37.19V6a1.13 1.13 0 0 0 1.71-.76c-.12-.94-1.41-.4-1.71.03zm21.42 5.88a1.46 1.46 0 0 0 1.71-.15c.24-1.83-1.85-1.09-1.71.15zM37 12.48c.39.52 1 .36 1.52 0v-.76c-.34-.22-1.52-.03-1.52.76z" transform="translate(.24 .34)"/>
  </g>
</svg>