<svg xmlns="http://www.w3.org/2000/svg" id="curved-arrow" viewBox="0 0 130.92 195.9">
  <g fill="#cfcbc8" fill-rule="evenodd">
    <path d="M26.07 110.45a79.22 79.22 0 0 0 7 12.38c1.32 1.81 2.6 3.65 3.88 5.49l.24.35c4.25 6.12 8.66 12.46 14.37 17.56.43 1.81 1.77 2.66 3 3.42a5.1 5.1 0 0 1 2.15 2c.95 2.11 2.73 3.15 4.3 4.07a14.71 14.71 0 0 1 2.32 1.56 8.59 8.59 0 0 0 1.07.77 3.37 3.37 0 0 1 1.31 1.15c.93 2.19 2.72 3.28 4.32 4.24l1 .6c3.06 2 6.23 3.89 9.3 5.75l.2.12c1.26.76 2.57 1.55 3.88 2.19l3.86 2.36c3.45 2.11 6.91 4.23 10.38 6.33.3.18.61.4 1 .66a5.5 5.5 0 0 0 3.23 1.41c3.12-.16 5.45 1.56 7.71 3.24l.64.47a13.76 13.76 0 0 0 5.45 2.09 20.52 20.52 0 0 1 3 .84l.34-1.55a25.71 25.71 0 0 0-2.83-.76 12.74 12.74 0 0 1-5-1.88l-.65-.47c-2.44-1.81-5-3.68-8.53-3.49a4.71 4.71 0 0 1-2.47-1.19c-.36-.25-.71-.5-1.07-.72L89 173.11l-3.92-2.4c-1.34-.65-2.65-1.44-4.07-2.29-3.07-1.86-6.24-3.77-9.29-5.74-.33-.22-.67-.42-1-.63-1.56-1-3-1.84-3.81-3.64a4.18 4.18 0 0 0-1.8-1.73 7.85 7.85 0 0 1-.93-.67 16.9 16.9 0 0 0-2.52-1.7c-1.55-.9-3-1.76-3.81-3.5a6.26 6.26 0 0 0-2.63-2.55c-1.12-.72-2.18-1.39-2.45-2.8a.66.66 0 0 0-.21-.37c-5.7-5-10.14-11.38-14.43-17.53-1.37-2-2.74-3.91-4.14-5.83-2.81-3.73-8.42-12.31-7.92-11.28z"/>
    <path d="M31.85 117.75a76.79 76.79 0 0 1-8-11.42c-1-1.94-2.13-3.86-3.23-5.79l-.2-.36c-3.64-6.42-7.41-13.09-9.49-20.4-1.46-1.17-1.64-2.78-1.8-4.13a5.16 5.16 0 0 0-.87-2.8C6.77 71.08 6.62 69 6.48 67.24a14 14 0 0 0-.39-2.76 8.81 8.81 0 0 1-.22-1.3 3.25 3.25 0 0 0-.47-1.67c-1.57-1.8-1.76-3.88-1.93-5.73 0-.38-.07-.76-.12-1.13-.44-3.6-.78-7.28-1.1-10.85v-.23c-.13-1.46-.27-3-.27-4.44l-.43-4.49q-.59-6-1.15-12.07c0-.35-.09-.72-.16-1.17a5.4 5.4 0 0 1 .15-3.52c1.53-2.68 1-5.53.48-8.29L.7 8.8A13.45 13.45 0 0 1 1.22 3a20.74 20.74 0 0 0 .57-3l1.56.41a24.78 24.78 0 0 1-.57 2.85 12.44 12.44 0 0 0-.49 5.24l.14.79c.56 3 1.14 6.07-.61 9.14a4.6 4.6 0 0 0 0 2.72c.08.44.14.86.18 1.28l1.12 12.09.44 4.57c0 1.48.14 3 .28 4.64.33 3.56.66 7.24 1.09 10.83.05.39.09.78.13 1.18.16 1.81.32 3.52 1.61 5a4.21 4.21 0 0 1 .77 2.37 9.51 9.51 0 0 0 .19 1.11 15.59 15.59 0 0 1 .43 3c.13 1.77.26 3.45 1.49 4.92a6.26 6.26 0 0 1 1.14 3.46c.16 1.32.3 2.56 1.45 3.41a.65.65 0 0 1 .24.35c2 7.27 5.79 14 9.43 20.42 1.16 2.06 2.31 4.11 3.41 6.17 2.17 4.05 7.34 12.68 6.63 11.8zm94.99 74.61a4.52 4.52 0 0 0-4.49-.29 5.23 5.23 0 0 0-2.35 2.7c2.22-.92 5.27-.26 6.84-2.41zm1.29-.22c-.18-1.65-1.78-2.81-2.46-4.28-1.19.34-.93 2.06-1.09 2.79 1.68.35 2.14 1.08 3.55 1.49zm2.79-.08l-.4.82a24.9 24.9 0 0 0-6.24 2c-2 .77-4.06 1.38-6 .9-.27-2.12 2.48-2.83 3.11-4.94-6.84-2.49-.94-1.36 1.85-1.24a7.45 7.45 0 0 0 .16-2.76 1.93 1.93 0 0 1 1.33-2.1 8.73 8.73 0 0 1 3.1 3.66 9 9 0 0 0 3.09 3.66z"/>
  </g>
</svg>